<svg xmlns="http://www.w3.org/2000/svg" viewBox="0 0 310.4 310.7">
<path d="M155.2,0C69.6,0,0,69.7,0,155.3s69.6,155.3,155.2,155.3c85.6,0,155.2-69.7,155.2-155.3S240.8,0,155.2,0z M24.1,215 c-8.3-18-12.9-38.4-12.9-59.6c0-79.5,64.6-144.2,144-144.2s144,64.7,144,144.2c0,21.3-4.6,41.6-12.9,59.6H24.1z"/>
</svg>
