<svg id="Layer_1" data-name="Layer 1" xmlns="http://www.w3.org/2000/svg" viewBox="0 0 88.72 111.33">
  <defs>
    <style>
      .cls-1 {
        fill: #e6e7e8;
      }

      .cls-2 {
        fill: #fff;
      }

      .cls-3 {
        fill: #e871ad;
      }
    </style>
  </defs>
  <path class="cls-1" d="M44.46,0A44.37,44.37,0,0,1,88.73,44.36c0,35.25-41.87,65.21-44.26,66.89V0Z"/>
  <path class="cls-2" d="M44.46,0V111.24l-0.11.08S0,79.65,0,44.36A44.35,44.35,0,0,1,44.36,0h0.11Z"/>
  <circle class="cls-3" cx="44.36" cy="44.99" r="20.01" transform="translate(-18.82 44.54) rotate(-45)"/>
</svg>
