<svg xmlns="http://www.w3.org/2000/svg" viewBox="0 0 88.7 111.3">
<style type="text/css">
	.st0{fill:#E6E7E8;}
	.st1{fill:#FFFFFF;}
	.st2{fill:#B9A263;}
</style>
<title>map-pin</title>
<path class="st0" d="M44.5,0h-0.1c0,0,0,0,0,0C19.8,0,0,19.9,0,44.4c0,35.3,44.3,67,44.3,67c2.4-1.7,44.4-31.7,44.4-67	C88.7,19.9,68.9,0.1,44.5,0z"/>
<path class="st1" d="M44.5,0v111.2l-0.1,0.1c0,0-44.3-31.7-44.3-67C0,19.9,19.8,0,44.3,0C44.3,0,44.4,0,44.5,0L44.5,0L44.5,0z"/>
<ellipse transform="matrix(0.7071 -0.7071 0.7071 0.7071 -18.8168 44.5432)" class="st2" cx="44.4" cy="45" rx="20" ry="20"/>
</svg>
