<?xml version="1.0" standalone="no"?>
<!DOCTYPE svg PUBLIC "-//W3C//DTD SVG 20010904//EN"
 "http://www.w3.org/TR/2001/REC-SVG-20010904/DTD/svg10.dtd">
<svg version="1.0" xmlns="http://www.w3.org/2000/svg"
 width="800.000000pt" height="800.000000pt" viewBox="0 0 800.000000 800.000000"
 preserveAspectRatio="xMidYMid meet">
<metadata>
Created by potrace 1.11, written by Peter Selinger 2001-2013
</metadata>
<g transform="translate(0.000000,800.000000) scale(0.100000,-0.100000)"
fill="#000000" stroke="none">
<path d="M6127 5614 c-484 -75 -769 -391 -882 -979 -8 -44 -17 -104 -21 -134
-3 -31 -7 -58 -9 -61 -9 -14 -19 -243 -19 -420 1 -166 9 -344 19 -400 1 -8 6
-42 10 -75 30 -258 135 -558 252 -718 65 -89 191 -224 254 -273 123 -95 309
-170 474 -191 76 -10 415 -9 475 1 317 56 531 226 640 508 39 99 69 231 72
311 l3 62 -35 5 c-32 5 -35 8 -35 40 l0 35 -70 1 c-83 2 -95 -2 -95 -28 0 -49
-46 -201 -85 -284 -113 -234 -311 -347 -631 -359 -108 -3 -221 12 -294 40 -76
30 -177 103 -215 155 -63 85 -142 268 -170 390 -23 102 -37 175 -51 285 -20
150 -26 597 -10 790 51 652 241 999 586 1071 242 50 583 -36 722 -183 72 -76
123 -239 128 -405 0 -10 14 -21 34 -28 29 -9 35 -17 38 -43 2 -26 8 -32 33
-37 17 -4 41 -3 55 0 l25 6 0 279 0 280 -25 35 c-63 90 -139 163 -215 205 -88
49 -252 97 -415 120 -92 14 -453 13 -543 -1z"/>
<path d="M393 5592 c-18 -2 -34 -9 -34 -15 -11 -87 -1 -127 31 -127 11 0 20
-6 21 -12 1 -27 8 -51 16 -58 4 -4 37 -10 71 -14 72 -6 165 -44 180 -73 11
-21 77 -242 98 -328 1 -5 21 -82 44 -170 57 -216 90 -347 95 -365 1 -8 33
-132 70 -275 37 -143 69 -267 70 -275 2 -8 27 -105 55 -215 29 -110 53 -207
55 -215 2 -8 24 -96 50 -195 26 -99 49 -187 51 -195 2 -8 15 -60 29 -115 15
-55 28 -107 30 -115 2 -8 15 -58 29 -110 73 -280 77 -290 100 -290 7 0 20 -18
29 -41 15 -39 17 -40 58 -37 l42 3 38 115 c21 63 74 230 119 370 45 140 85
266 90 280 5 14 39 120 75 235 36 116 88 278 115 360 67 209 174 544 203 640
14 43 29 81 35 83 5 1 29 -57 52 -130 23 -73 66 -209 95 -303 30 -93 74 -235
99 -315 190 -615 329 -1058 336 -1075 5 -11 18 -54 30 -96 17 -58 28 -79 45
-87 14 -6 26 -23 30 -41 7 -34 37 -48 80 -37 20 5 28 17 40 64 9 31 23 80 31
107 21 74 155 568 159 585 3 16 10 41 117 435 38 143 72 271 74 285 3 14 7 32
10 40 5 13 98 355 108 400 2 8 23 85 46 170 211 785 211 784 261 838 76 82
205 107 336 66 97 -31 88 98 89 -1288 0 -670 -3 -1239 -8 -1264 -9 -51 -46
-105 -90 -132 -33 -20 -128 -40 -201 -44 -56 -2 -67 -12 -69 -57 -2 -51 10
-76 37 -83 17 -4 25 -13 25 -29 1 -53 -24 -50 565 -50 459 0 548 2 556 14 5 8
9 35 9 60 0 49 -18 76 -45 65 -11 -4 -15 2 -15 27 0 45 -9 54 -55 54 -64 0
-136 13 -187 35 -40 17 -49 26 -58 57 -15 53 -14 2438 1 2496 24 96 111 149
262 161 45 4 85 12 89 18 4 6 8 32 8 58 0 50 -20 81 -45 72 -11 -5 -15 1 -15
22 0 60 58 56 -895 56 -534 0 -880 -3 -886 -9 -14 -14 -20 -79 -9 -108 6 -15
17 -25 29 -25 14 0 21 -10 25 -36 8 -40 10 -41 91 -47 78 -6 151 -25 167 -44
10 -12 9 -32 -5 -98 -9 -46 -24 -105 -32 -131 -14 -46 -153 -558 -225 -829
-18 -66 -41 -151 -51 -190 -11 -38 -21 -77 -23 -85 -43 -171 -158 -575 -167
-586 -13 -16 11 -86 -381 1086 -126 376 -234 688 -241 692 -6 3 -14 5 -18 3
-3 -3 -12 13 -19 35 -7 21 -18 41 -24 43 -21 7 -106 1 -115 -8 -8 -9 -153
-443 -325 -975 -233 -719 -289 -886 -300 -897 -11 -12 -39 81 -86 277 -4 19
-27 105 -49 190 -94 357 -183 697 -191 730 -13 53 -52 204 -105 400 -26 96
-48 193 -49 215 -3 40 14 87 41 113 25 26 112 52 191 58 42 4 80 11 84 18 10
14 10 98 0 112 -4 7 -16 13 -27 15 -12 3 -22 15 -26 37 -4 18 -9 36 -12 39 -6
5 -978 10 -1034 5z"/>
</g>
</svg>
